module github.com/go-spatial/tegola

go 1.17

require (
	github.com/Azure/azure-storage-blob-go v0.0.0-20180706173141-f0a732ea9441
	github.com/BurntSushi/toml v0.4.1
	github.com/ajstarks/svgo v0.0.0-20170507103333-2489f1e6d405
	github.com/akrylysov/algnhsa v0.12.1
	github.com/aws/aws-sdk-go v1.27.0
	github.com/dimfeld/httptreemux v5.0.1+incompatible
	github.com/gdey/tbltest v0.0.0-20170331191646-af8abc47b052
	github.com/go-redis/redis v6.9.0+incompatible
	github.com/go-spatial/cobra v0.0.3-0.20181105183926-68194e4fbcc6
	github.com/go-spatial/geom v0.0.0-20190821234737-802ab2533ab4
	github.com/go-test/deep v0.0.0-20170429201529-f49763a6ea0a
	github.com/golang/protobuf v1.4.3
	github.com/jackc/pgproto3/v2 v2.2.0
	github.com/jackc/pgtype v1.9.1
	github.com/jackc/pgx/v4 v4.14.1
	github.com/mattn/go-sqlite3 v1.14.6
	github.com/mattn/goveralls v0.0.5
	github.com/pborman/uuid v1.2.0
	github.com/prometheus/client_golang v1.9.0
	github.com/theckman/goconstraint v1.10.1-0.20180216224824-e867bde6e4e1
	gopkg.in/go-playground/colors.v1 v1.0.2-0.20150924111726-b53ecfb39623
)

require (
	github.com/Azure/azure-pipeline-go v0.0.0-20180607212504-7571e8eb0876 // indirect
	github.com/arolek/p v0.0.0-20191103215535-df3c295ed582 // indirect
	github.com/aws/aws-lambda-go v1.13.3 // indirect
	github.com/beorn7/perks v1.0.1 // indirect
	github.com/cespare/xxhash/v2 v2.1.1 // indirect
	github.com/gofrs/uuid v4.0.0+incompatible // indirect
	github.com/google/uuid v1.0.0 // indirect
	github.com/inconshreveable/mousetrap v1.0.0 // indirect
	github.com/jackc/chunkreader/v2 v2.0.1 // indirect
	github.com/jackc/pgconn v1.10.1 // indirect
	github.com/jackc/pgio v1.0.0 // indirect
	github.com/jackc/pgpassfile v1.0.0 // indirect
	github.com/jackc/pgservicefile v0.0.0-20200714003250-2b9c44734f2b // indirect
	github.com/jackc/puddle v1.2.0 // indirect
	github.com/jmespath/go-jmespath v0.0.0-20180206201540-c2b33e8439af // indirect
	github.com/matttproud/golang_protobuf_extensions v1.0.1 // indirect
	github.com/prometheus/client_model v0.2.0 // indirect
	github.com/prometheus/common v0.15.0 // indirect
	github.com/prometheus/procfs v0.2.0 // indirect
	github.com/spf13/pflag v1.0.1 // indirect
	golang.org/x/crypto v0.0.0-20210711020723-a769d52b0f97 // indirect
	golang.org/x/sys v0.0.0-20210615035016-665e8c7367d1 // indirect
	golang.org/x/text v0.3.6 // indirect
	golang.org/x/tools v0.0.0-20200507205054-480da3ebd79c // indirect
	google.golang.org/protobuf v1.23.0 // indirect
)
